<?xml version="1.0" encoding="UTF-8" standalone="no"?>
<!DOCTYPE svg PUBLIC "-//W3C//DTD SVG 1.1//EN"
 "http://www.w3.org/Graphics/SVG/1.1/DTD/svg11.dtd">
<!-- Generated by graphviz version 2.40.1 (20161225.0304)
 -->
<!-- Title: dependencies Pages: 1 -->
<svg width="617pt" height="211pt"
 viewBox="0.00 0.00 617.00 211.00" xmlns="http://www.w3.org/2000/svg" xmlns:xlink="http://www.w3.org/1999/xlink">
<g id="graph0" class="graph" transform="scale(1 1) rotate(0) translate(4 207)">
<title>dependencies</title>
<polygon fill="#ffffff" stroke="transparent" points="-4,4 -4,-207 613,-207 613,4 -4,4"/>
<text text-anchor="start" x="283.5091" y="-42.4" font-family="sans-serif" font-weight="bold" font-size="14.00" fill="#000000">Legend</text>
<polygon fill="#ffffb3" stroke="transparent" points="70.5,-10 70.5,-30 90.5,-30 90.5,-10 70.5,-10"/>
<text text-anchor="start" x="94.129" y="-15.4" font-family="sans-serif" font-size="14.00" fill="#000000"> &#160;Declarations</text>
<polygon fill="#8dd3c7" stroke="transparent" points="183.5,-10 183.5,-30 203.5,-30 203.5,-10 183.5,-10"/>
<text text-anchor="start" x="207.2251" y="-15.4" font-family="sans-serif" font-size="14.00" fill="#000000"> &#160;Module</text>
<polygon fill="#80b1d3" stroke="transparent" points="269.5,-10 269.5,-30 289.5,-30 289.5,-10 269.5,-10"/>
<text text-anchor="start" x="293.2812" y="-15.4" font-family="sans-serif" font-size="14.00" fill="#000000"> &#160;Bootstrap</text>
<polygon fill="#fdb462" stroke="transparent" points="366.5,-10 366.5,-30 386.5,-30 386.5,-10 366.5,-10"/>
<text text-anchor="start" x="390.1732" y="-15.4" font-family="sans-serif" font-size="14.00" fill="#000000"> &#160;Providers</text>
<polygon fill="#fb8072" stroke="transparent" points="462.5,-10 462.5,-30 482.5,-30 482.5,-10 462.5,-10"/>
<text text-anchor="start" x="486.2258" y="-15.4" font-family="sans-serif" font-size="14.00" fill="#000000"> &#160;Exports</text>
<g id="clust1" class="cluster">
<title>cluster_NotificationAssignDialogModule</title>
<polygon fill="none" stroke="#000000" stroke-dasharray="1,5" points="8,-70 8,-195 601,-195 601,-70 8,-70"/>
</g>
<g id="clust2" class="cluster">
<title>cluster_NotificationAssignDialogModule_declarations</title>
<polygon fill="none" stroke="#000000" points="351,-78 351,-130 593,-130 593,-78 351,-78"/>
</g>
<g id="clust4" class="cluster">
<title>cluster_NotificationAssignDialogModule_imports</title>
<polygon fill="none" stroke="#000000" points="16,-78 16,-130 343,-130 343,-78 16,-78"/>
</g>
<!-- NotificationAssignDialogComponent -->
<g id="node1" class="node">
<title>NotificationAssignDialogComponent</title>
<polygon fill="#ffffb3" stroke="#000000" points="584.9706,-122 359.0294,-122 359.0294,-86 584.9706,-86 584.9706,-122"/>
<text text-anchor="middle" x="472" y="-99.8" font-family="Times,serif" font-size="14.00" fill="#000000">NotificationAssignDialogComponent</text>
</g>
<!-- NotificationAssignDialogModule -->
<g id="node2" class="node">
<title>NotificationAssignDialogModule</title>
<polygon fill="#8dd3c7" stroke="#000000" points="361.1881,-187 358.1881,-191 337.1881,-191 334.1881,-187 156.8119,-187 156.8119,-151 361.1881,-151 361.1881,-187"/>
<text text-anchor="middle" x="259" y="-164.8" font-family="Times,serif" font-size="14.00" fill="#000000">NotificationAssignDialogModule</text>
</g>
<!-- NotificationAssignDialogComponent&#45;&gt;NotificationAssignDialogModule -->
<g id="edge1" class="edge">
<title>NotificationAssignDialogComponent&#45;&gt;NotificationAssignDialogModule</title>
<path fill="none" stroke="#000000" d="M358.7336,-104C351.605,-104 347.2181,-104 347.2181,-104 347.2181,-104 347.2181,-140.8939 347.2181,-140.8939"/>
<polygon fill="#000000" stroke="#000000" points="343.7182,-140.8938 347.2181,-150.8939 350.7182,-140.8939 343.7182,-140.8938"/>
</g>
<!-- AngularMaterialModule -->
<g id="node3" class="node">
<title>AngularMaterialModule</title>
<polygon fill="#8dd3c7" stroke="#000000" points="335.3431,-122 332.3431,-126 311.3431,-126 308.3431,-122 182.6569,-122 182.6569,-86 335.3431,-86 335.3431,-122"/>
<text text-anchor="middle" x="259" y="-99.8" font-family="Times,serif" font-size="14.00" fill="#000000">AngularMaterialModule</text>
</g>
<!-- AngularMaterialModule&#45;&gt;NotificationAssignDialogModule -->
<g id="edge2" class="edge">
<title>AngularMaterialModule&#45;&gt;NotificationAssignDialogModule</title>
<path fill="none" stroke="#000000" d="M259,-122.1061C259,-122.1061 259,-140.991 259,-140.991"/>
<polygon fill="#000000" stroke="#000000" points="255.5001,-140.9909 259,-150.991 262.5001,-140.991 255.5001,-140.9909"/>
</g>
<!-- DragAndDropModule -->
<g id="node4" class="node">
<title>DragAndDropModule</title>
<polygon fill="#8dd3c7" stroke="#000000" points="164.406,-122 161.406,-126 140.406,-126 137.406,-122 23.594,-122 23.594,-86 164.406,-86 164.406,-122"/>
<text text-anchor="middle" x="94" y="-99.8" font-family="Times,serif" font-size="14.00" fill="#000000">DragAndDropModule</text>
</g>
<!-- DragAndDropModule&#45;&gt;NotificationAssignDialogModule -->
<g id="edge3" class="edge">
<title>DragAndDropModule&#45;&gt;NotificationAssignDialogModule</title>
<path fill="none" stroke="#000000" d="M160.5544,-122.1061C160.5544,-122.1061 160.5544,-140.991 160.5544,-140.991"/>
<polygon fill="#000000" stroke="#000000" points="157.0544,-140.9909 160.5544,-150.991 164.0544,-140.991 157.0544,-140.9909"/>
</g>
</g>
</svg>
