<?xml version="1.0" encoding="UTF-8" standalone="no"?>
<!DOCTYPE svg PUBLIC "-//W3C//DTD SVG 1.1//EN"
 "http://www.w3.org/Graphics/SVG/1.1/DTD/svg11.dtd">
<!-- Generated by graphviz version 2.40.1 (20161225.0304)
 -->
<!-- Title: dependencies Pages: 1 -->
<svg width="504pt" height="284pt"
 viewBox="0.00 0.00 504.00 284.00" xmlns="http://www.w3.org/2000/svg" xmlns:xlink="http://www.w3.org/1999/xlink">
<g id="graph0" class="graph" transform="scale(1 1) rotate(0) translate(4 280)">
<title>dependencies</title>
<polygon fill="#ffffff" stroke="transparent" points="-4,4 -4,-280 500,-280 500,4 -4,4"/>
<text text-anchor="start" x="227.0091" y="-42.4" font-family="sans-serif" font-weight="bold" font-size="14.00" fill="#000000">Legend</text>
<polygon fill="#ffffb3" stroke="transparent" points="14,-10 14,-30 34,-30 34,-10 14,-10"/>
<text text-anchor="start" x="37.629" y="-15.4" font-family="sans-serif" font-size="14.00" fill="#000000"> &#160;Declarations</text>
<polygon fill="#8dd3c7" stroke="transparent" points="127,-10 127,-30 147,-30 147,-10 127,-10"/>
<text text-anchor="start" x="150.7251" y="-15.4" font-family="sans-serif" font-size="14.00" fill="#000000"> &#160;Module</text>
<polygon fill="#80b1d3" stroke="transparent" points="213,-10 213,-30 233,-30 233,-10 213,-10"/>
<text text-anchor="start" x="236.7812" y="-15.4" font-family="sans-serif" font-size="14.00" fill="#000000"> &#160;Bootstrap</text>
<polygon fill="#fdb462" stroke="transparent" points="310,-10 310,-30 330,-30 330,-10 310,-10"/>
<text text-anchor="start" x="333.6732" y="-15.4" font-family="sans-serif" font-size="14.00" fill="#000000"> &#160;Providers</text>
<polygon fill="#fb8072" stroke="transparent" points="406,-10 406,-30 426,-30 426,-10 406,-10"/>
<text text-anchor="start" x="429.7258" y="-15.4" font-family="sans-serif" font-size="14.00" fill="#000000"> &#160;Exports</text>
<g id="clust1" class="cluster">
<title>cluster_NotificationMoreInfoModule</title>
<polygon fill="none" stroke="#000000" stroke-dasharray="1,5" points="43,-70 43,-268 453,-268 453,-70 43,-70"/>
</g>
<g id="clust2" class="cluster">
<title>cluster_NotificationMoreInfoModule_declarations</title>
<polygon fill="none" stroke="#000000" points="227,-78 227,-130 445,-130 445,-78 227,-78"/>
</g>
<g id="clust4" class="cluster">
<title>cluster_NotificationMoreInfoModule_imports</title>
<polygon fill="none" stroke="#000000" points="51,-78 51,-130 219,-130 219,-78 51,-78"/>
</g>
<g id="clust5" class="cluster">
<title>cluster_NotificationMoreInfoModule_exports</title>
<polygon fill="none" stroke="#000000" points="137,-208 137,-260 359,-260 359,-208 137,-208"/>
</g>
<!-- NotificationMoreInfoComponent -->
<g id="node1" class="node">
<title>NotificationMoreInfoComponent</title>
<polygon fill="#ffffb3" stroke="#000000" points="437.1232,-122 234.8768,-122 234.8768,-86 437.1232,-86 437.1232,-122"/>
<text text-anchor="middle" x="336" y="-99.8" font-family="Times,serif" font-size="14.00" fill="#000000">NotificationMoreInfoComponent</text>
</g>
<!-- NotificationMoreInfoModule -->
<g id="node2" class="node">
<title>NotificationMoreInfoModule</title>
<polygon fill="#8dd3c7" stroke="#000000" points="338.3403,-187 335.3403,-191 314.3403,-191 311.3403,-187 157.6597,-187 157.6597,-151 338.3403,-151 338.3403,-187"/>
<text text-anchor="middle" x="248" y="-164.8" font-family="Times,serif" font-size="14.00" fill="#000000">NotificationMoreInfoModule</text>
</g>
<!-- NotificationMoreInfoComponent&#45;&gt;NotificationMoreInfoModule -->
<g id="edge1" class="edge">
<title>NotificationMoreInfoComponent&#45;&gt;NotificationMoreInfoModule</title>
<path fill="none" stroke="#000000" d="M286.5544,-122.1061C286.5544,-122.1061 286.5544,-140.991 286.5544,-140.991"/>
<polygon fill="#000000" stroke="#000000" points="283.0544,-140.9909 286.5544,-150.991 290.0544,-140.991 283.0544,-140.9909"/>
</g>
<!-- NotificationMoreInfoComponent  -->
<g id="node4" class="node">
<title>NotificationMoreInfoComponent </title>
<polygon fill="#fb8072" stroke="#000000" points="351.1228,-252 144.8772,-252 144.8772,-216 351.1228,-216 351.1228,-252"/>
<text text-anchor="middle" x="248" y="-229.8" font-family="Times,serif" font-size="14.00" fill="#000000">NotificationMoreInfoComponent </text>
</g>
<!-- NotificationMoreInfoModule&#45;&gt;NotificationMoreInfoComponent  -->
<g id="edge3" class="edge">
<title>NotificationMoreInfoModule&#45;&gt;NotificationMoreInfoComponent </title>
<path fill="none" stroke="#000000" stroke-dasharray="5,2" d="M248,-187.1061C248,-187.1061 248,-205.991 248,-205.991"/>
<polygon fill="#000000" stroke="#000000" points="244.5001,-205.9909 248,-215.991 251.5001,-205.991 244.5001,-205.9909"/>
</g>
<!-- AngularMaterialModule -->
<g id="node3" class="node">
<title>AngularMaterialModule</title>
<polygon fill="#8dd3c7" stroke="#000000" points="211.3431,-122 208.3431,-126 187.3431,-126 184.3431,-122 58.6569,-122 58.6569,-86 211.3431,-86 211.3431,-122"/>
<text text-anchor="middle" x="135" y="-99.8" font-family="Times,serif" font-size="14.00" fill="#000000">AngularMaterialModule</text>
</g>
<!-- AngularMaterialModule&#45;&gt;NotificationMoreInfoModule -->
<g id="edge2" class="edge">
<title>AngularMaterialModule&#45;&gt;NotificationMoreInfoModule</title>
<path fill="none" stroke="#000000" d="M184.5007,-122.1061C184.5007,-122.1061 184.5007,-140.991 184.5007,-140.991"/>
<polygon fill="#000000" stroke="#000000" points="181.0008,-140.9909 184.5007,-150.991 188.0008,-140.991 181.0008,-140.9909"/>
</g>
</g>
</svg>
